{
  "entity_name": "herb",
  "entity_type": "item",
  "entity_image_vectors": [
    [
      {
        "x": 3,
        "y": 8
      },
      {
        "x": 7,
        "y": 4
      }
    ],
    [
      {
        "x": 6,
        "y": 4
      },
      {
        "x": 6,
        "y": 5
      }
    ],
    [
      {
        "x": 6,
        "y": 5
      },
      {
        "x": 7,
        "y": 5
      }
    ],
    [
      {
        "x": 5,
        "y": 4
      },
      {
        "x": 5,
        "y": 6
      }
    ],
    [
      {
        "x": 6,
        "y": 6
      },
      {
        "x": 7,
        "y": 6
      }
    ],
    [
      {
        "x": 4,
        "y": 5
      },
      {
        "x": 4,
        "y": 7
      }
    ],
    [
      {
        "x": 4,
        "y": 7
      },
      {
        "x": 6,
        "y": 7
      }
    ]    
  ],
  "takeable": 1,
  "entity_id": "none",
  "skill": 0,
  "stamina": 0,
  "luck": 0,
  "pos_x": 0,
  "pos_y": 0,
  "direction": 2
}